{
  "project_info": {
    "project_number": "179839441991",
    "firebase_url": "https://weightwar-e35c8.firebaseio.com",
    "project_id": "weightwar-e35c8",
    "storage_bucket": "weightwar-e35c8.appspot.com"
  },
  "client": [
    {
      "client_info": {
        "mobilesdk_app_id": "1:179839441991:android:9208f3d0845657a9",
        "android_client_info": {
          "package_name": "com.bestmedical.apps.disease.dictionary"
        }
      },
      "oauth_client": [
        {
          "client_id": "179839441991-gltekbal50a8jm44g621uuqjeeqa7vvd.apps.googleusercontent.com",
          "client_type": 3
        }
      ],
      "api_key": [
        {
          "current_key": "AIzaSyAf8rxUxSfBYzFe4jUlMpRyYp9BkGa6rRs"
        }
      ],
      "services": {
        "analytics_service": {
          "status": 1
        },
        "appinvite_service": {
          "status": 1,
          "other_platform_oauth_client": []
        },
        "ads_service": {
          "status": 2
        }
      }
    },
    {
      "client_info": {
        "mobilesdk_app_id": "1:179839441991:android:0dbdac2739829c3a",
        "android_client_info": {
          "package_name": "br.liveo.navigationliveo"
        }
      },
      "oauth_client": [
        {
          "client_id": "179839441991-gltekbal50a8jm44g621uuqjeeqa7vvd.apps.googleusercontent.com",
          "client_type": 3
        }
      ],
      "api_key": [
        {
          "current_key": "AIzaSyAf8rxUxSfBYzFe4jUlMpRyYp9BkGa6rRs"
        }
      ],
      "services": {
        "analytics_service": {
          "status": 1
        },
        "appinvite_service": {
          "status": 1,
          "other_platform_oauth_client": []
        },
        "ads_service": {
          "status": 2
        }
      }
    },
    {
      "client_info": {
        "mobilesdk_app_id": "1:179839441991:android:378e9f66446832f5",
        "android_client_info": {
          "package_name": "com.example.letoan.testfirebase"
        }
      },
      "oauth_client": [
        {
          "client_id": "179839441991-k1gbmokrkna4thed6ugm5v9oo9i3qtl5.apps.googleusercontent.com",
          "client_type": 1,
          "android_info": {
            "package_name": "com.example.letoan.testfirebase",
            "certificate_hash": "bfb5fbef057d98bf10d66ce2e1b2cd4cb5eb5985"
          }
        },
        {
          "client_id": "179839441991-gltekbal50a8jm44g621uuqjeeqa7vvd.apps.googleusercontent.com",
          "client_type": 3
        }
      ],
      "api_key": [
        {
          "current_key": "AIzaSyAf8rxUxSfBYzFe4jUlMpRyYp9BkGa6rRs"
        }
      ],
      "services": {
        "analytics_service": {
          "status": 1
        },
        "appinvite_service": {
          "status": 2,
          "other_platform_oauth_client": [
            {
              "client_id": "179839441991-gltekbal50a8jm44g621uuqjeeqa7vvd.apps.googleusercontent.com",
              "client_type": 3
            }
          ]
        },
        "ads_service": {
          "status": 2
        }
      }
    }
  ],
  "configuration_version": "1"
}